-------------------------------------------------------------------------------
Test set: com.posco.mes3.n1b.material.SlabJpaStoreTest
-------------------------------------------------------------------------------
Tests run: 1, Failures: 0, Errors: 0, Skipped: 0, Time elapsed: 11.197 sec
