C:\Users\bmw\Downloads\bootcamp-day4-spring-boot-day3-ing\share\share-domain\src\main\java\com\posco\mes3\share\domain\Dimension.java
C:\Users\bmw\Downloads\bootcamp-day4-spring-boot-day3-ing\share\share-domain\src\main\java\com\posco\mes3\share\domain\NameValueList.java
C:\Users\bmw\Downloads\bootcamp-day4-spring-boot-day3-ing\share\share-domain\src\main\java\com\posco\mes3\shared\event\SourcingEvent.java
C:\Users\bmw\Downloads\bootcamp-day4-spring-boot-day3-ing\share\share-domain\src\main\java\com\posco\mes3\share\domain\NameValue.java
